{
  "version": "1.0",
  "defaultProvider": "cdnjs",
  "libraries": [
    {
      "library": "twitter-bootstrap@4.4.1",
      "destination": "wwwroot/lib",
      "files": [
        "js/bootstrap.min.js",
        "css/bootstrap.min.css"
      ]
    }
  ]
}